// Jest Snapshot v1, https://goo.gl/fbAQLP

exports[`Test City search card City search card testing 1`] = `ShallowWrapper {}`;

exports[`Test City search page City Search Page Testing 1`] = `ShallowWrapper {}`;

exports[`Test city module page CityModule page 1`] = `ShallowWrapper {}`;
